module github.com/x0f5c3/manic-go

go 1.18

require (
	github.com/AlecAivazis/survey/v2 v2.2.7
	github.com/google/go-github/v33 v33.0.0
	github.com/pterm/pcli v0.4.6
	github.com/pterm/pterm v0.12.41
	github.com/reugn/async v0.0.0-20200819063434-15e5b3951cd7
	github.com/spf13/cobra v1.1.3
)

require (
	github.com/atomicgo/cursor v0.0.1 // indirect
	github.com/google/go-querystring v1.0.0 // indirect
	github.com/gookit/color v1.5.0 // indirect
	github.com/inconshreveable/mousetrap v1.0.0 // indirect
	github.com/kballard/go-shellquote v0.0.0-20180428030007-95032a82bc51 // indirect
	github.com/mattn/go-colorable v0.1.2 // indirect
	github.com/mattn/go-isatty v0.0.12 // indirect
	github.com/mattn/go-runewidth v0.0.13 // indirect
	github.com/mgutz/ansi v0.0.0-20170206155736-9520e82c474b // indirect
	github.com/rivo/uniseg v0.2.0 // indirect
	github.com/spf13/pflag v1.0.5 // indirect
	github.com/tidwall/gjson v1.9.3 // indirect
	github.com/tidwall/match v1.1.1 // indirect
	github.com/tidwall/pretty v1.2.0 // indirect
	github.com/xo/terminfo v0.0.0-20210125001918-ca9a967f8778 // indirect
	golang.org/x/crypto v0.0.0-20190605123033-f99c8df09eb5 // indirect
	golang.org/x/sys v0.0.0-20220319134239-a9b59b0215f8 // indirect
	golang.org/x/term v0.0.0-20210927222741-03fcf44c2211 // indirect
	golang.org/x/text v0.3.2 // indirect
)
